^C:\USERS\MARCIN\SOURCE\REPOS\LABORATORIUM2\LABORATORIUM2\X64\DEBUG\LABORATORIUM2.OBJ
C:\USERS\MARCIN\SOURCE\REPOS\LABORATORIUM2\X64\DEBUG\LABORATORIUM2TASK1.EXE
C:\USERS\MARCIN\SOURCE\REPOS\LABORATORIUM2\X64\DEBUG\LABORATORIUM2TASK1.ILK
C:\USERS\MARCIN\SOURCE\REPOS\LABORATORIUM2\X64\DEBUG\LABORATORIUM2TASK1.PDB
