^C:\USERS\MARCIN\SOURCE\REPOS\LABORATORIUM2TASK2\LABORATORIUM2TASK2\LABORATORIUM2TASK2.CPP
C:\USERS\MARCIN\SOURCE\REPOS\LABORATORIUM2TASK2\LABORATORIUM2TASK2\X64\DEBUG\VC142.PDB
C:\USERS\MARCIN\SOURCE\REPOS\LABORATORIUM2TASK2\LABORATORIUM2TASK2\X64\DEBUG\VC142.IDB
C:\USERS\MARCIN\SOURCE\REPOS\LABORATORIUM2TASK2\LABORATORIUM2TASK2\X64\DEBUG\LABORATORIUM2TASK2.OBJ
